case study
…
answer another question

price_neighborhood = 
  select(nyc_airbnb, neighbourhood, price) %>% 
  group_by(neighbourhood) %>% 
  summarise(
    mean_price = mean(price)
  ) %>% 
  arrange(-mean_price)
price_neighborhood

## # A tibble: 217 x 2
##    neighbourhood     mean_price
##    <chr>                  <dbl>
##  1 Westerleigh             785 
##  2 Mill Basin              500 
##  3 Woodrow                 458.
##  4 Tribeca                 353.
##  5 Randall Manor           345.
##  6 Flatiron District       319.
##  7 NoHo                    302.
##  8 Sea Gate                288.
##  9 Hollis Hills            265 
## 10 Greenwich Village       258.
## #  with 207 more rows
…
nyc_airbnb %>% 
  count(neighbourhood)

## # A tibble: 217 x 2
##    neighbourhood                  n
##    <chr>                      <int>
##  1 Allerton                      23
##  2 Arden Heights                  6
##  3 Arrochar                      14
##  4 Arverne                       71
##  5 Astoria                      755
##  6 Bath Beach                    11
##  7 Battery Park City             65
##  8 Bay Ridge                     91
##  9 Bay Terrace                    5
## 10 Bay Terrace, Staten Island     1
## #  with 207 more rows
…
